{
	"version": 2,
	"settings": {
		"color": {
			"palette": [
				{
					"slug": "foreground",
					"color": "#111111",
					"name": "Foreground"
				},
				{
					"slug": "background",
					"color": "#f7f5ee",
					"name": "Background"
				},
				{
					"slug": "primary",
					"color": "#D6FDFF",
					"name": "Primary"
				},
				{
					"slug": "secondary",
					"color": "#d7ab0e",
					"name": "Secondary"
				},
				{
					"slug": "tertiary",
					"color": "#FED9B7",
					"name": "Tertiary"
				},
				{
					"slug": "accent",
					"color": "#E94435",
					"name": "Accent"
				}
			],
			"duotone": [
				{
					"colors": [
						"#00FF29",
						"#00FFFF"
					],
					"slug": "default-filter",
					"name": "Default filter"
				}
			]
		},
		"layout": {
			"contentSize": "920px",
			"wideSize": "1140px"
		},
		"custom": {
			"spacing": {
				"outer": "0"
			}
		}
	},
	"customTemplates": [
		{
			"name": "jobs",
			"title": "Job template",
			"postTypes": [
				"page"
			]
		}
	]
}